<?xml version="1.0" encoding="UTF-8" standalone="no"?>
<!-- Created with Inkscape (http://www.inkscape.org/) -->

<svg
   width="200mm"
   height="200mm"
   viewBox="0 0 200 200"
   version="1.1"
   id="svg859"
   sodipodi:docname="freethrow.svg"
   inkscape:version="1.1.2 (0a00cf5339, 2022-02-04)"
   xmlns:inkscape="http://www.inkscape.org/namespaces/inkscape"
   xmlns:sodipodi="http://sodipodi.sourceforge.net/DTD/sodipodi-0.dtd"
   xmlns="http://www.w3.org/2000/svg"
   xmlns:svg="http://www.w3.org/2000/svg">
  <sodipodi:namedview
     id="namedview861"
     pagecolor="#646464"
     bordercolor="#666666"
     borderopacity="1.0"
     inkscape:pageshadow="2"
     inkscape:pageopacity="0"
     inkscape:pagecheckerboard="true"
     inkscape:document-units="mm"
     showgrid="false"
     inkscape:snap-nodes="true"
     inkscape:object-paths="true"
     inkscape:snap-intersection-paths="true"
     inkscape:snap-smooth-nodes="true"
     inkscape:snap-midpoints="true"
     inkscape:snap-object-midpoints="true"
     inkscape:zoom="0.69130191"
     inkscape:cx="397.07687"
     inkscape:cy="561.25984"
     inkscape:window-width="1920"
     inkscape:window-height="1043"
     inkscape:window-x="0"
     inkscape:window-y="0"
     inkscape:window-maximized="1"
     inkscape:current-layer="layer1" />
  <defs
     id="defs856">
    <marker
       style="overflow:visible;"
       id="Arrow1Send"
       refX="0.0"
       refY="0.0"
       orient="auto"
       inkscape:stockid="Arrow1Send"
       inkscape:isstock="true">
      <path
         transform="scale(0.2) rotate(180) translate(6,0)"
         style="fill-rule:evenodd;fill:context-stroke;stroke:context-stroke;stroke-width:1.0pt;"
         d="M 0.0,0.0 L 5.0,-5.0 L -12.5,0.0 L 5.0,5.0 L 0.0,0.0 z "
         id="path1098" />
    </marker>
    <marker
       style="overflow:visible;"
       id="Arrow1Lend"
       refX="0.0"
       refY="0.0"
       orient="auto"
       inkscape:stockid="Arrow1Lend"
       inkscape:isstock="true">
      <path
         transform="scale(0.8) rotate(180) translate(12.5,0)"
         style="fill-rule:evenodd;fill:context-stroke;stroke:context-stroke;stroke-width:1.0pt;"
         d="M 0.0,0.0 L 5.0,-5.0 L -12.5,0.0 L 5.0,5.0 L 0.0,0.0 z "
         id="path1086" />
    </marker>
    <filter
       id="mask-powermask-path-effect5291_inverse"
       inkscape:label="filtermask-powermask-path-effect5291"
       style="color-interpolation-filters:sRGB"
       height="100"
       width="100"
       x="-50"
       y="-50">
      <feColorMatrix
         id="mask-powermask-path-effect5291_primitive1"
         values="1"
         type="saturate"
         result="fbSourceGraphic" />
      <feColorMatrix
         id="mask-powermask-path-effect5291_primitive2"
         values="-1 0 0 0 1 0 -1 0 0 1 0 0 -1 0 1 0 0 0 1 0 "
         in="fbSourceGraphic" />
    </filter>
  </defs>
  <g
     inkscape:label="Layer 1"
     inkscape:groupmode="layer"
     id="layer1">
    <path
       id="path942"
       style="fill:#464646;fill-opacity:1;stroke:none;stroke-width:0;stroke-linecap:round;stroke-miterlimit:0.3;stroke-dasharray:none"
       d="m 191.00338,84.208053 -26.55816,11.315238 -4.10504,33.804889 21.61231,16.24105 a 94.18423,94.18423 0 0 0 10.78612,-43.74549 94.18423,94.18423 0 0 0 -1.73523,-17.615687 z" />
    <path
       id="path5888"
       style="fill:#464646;fill-opacity:1;stroke:none;stroke-width:0;stroke-linecap:round;stroke-miterlimit:0.3;stroke-dasharray:none"
       d="m 161.95816,171.16933 -22.11256,-16.61756 -31.32842,13.34743 -3.35851,27.65881 a 94.18423,94.18423 0 0 0 56.79949,-24.38868 z" />
    <path
       id="path6291"
       style="fill:#464646;fill-opacity:1;stroke:none;stroke-width:0;stroke-linecap:round;stroke-miterlimit:0.3;stroke-dasharray:none"
       d="m 66.463319,190.12076 3.517008,-28.96392 -27.22338,-20.45745 -24.348615,10.37308 a 94.18423,94.18423 0 0 0 48.054987,39.04829 z" />
    <path
       id="path6294"
       style="fill:#464646;fill-opacity:1;stroke:none;stroke-width:0;stroke-linecap:round;stroke-miterlimit:0.3;stroke-dasharray:none"
       d="M 6.4396603,120.16415 32.527039,109.04925 36.632673,75.244365 14.988543,58.979746 A 94.18423,94.18423 0 0 0 4.3697571,101.82374 94.18423,94.18423 0 0 0 6.4396603,120.16415 Z" />
    <path
       id="path6297"
       style="fill:#ffffff;fill-opacity:1;stroke:none;stroke-width:0;stroke-linecap:round;stroke-miterlimit:0.3;stroke-dasharray:none"
       d="M 98.554185,7.6399001 A 94.18423,94.18423 0 0 0 91.801223,7.9345064 L 88.413839,35.825466 57.086005,49.172307 34.916887,32.512914 A 94.18423,94.18423 0 0 0 14.988543,58.979746 l 21.64413,16.264619 -4.105634,33.804885 -26.0873787,11.1149 a 94.18423,94.18423 0 0 0 11.9686717,30.90832 l 24.348615,-10.37308 27.22338,20.45745 -3.517008,28.96392 a 94.18423,94.18423 0 0 0 32.090866,5.88741 94.18423,94.18423 0 0 0 6.604485,-0.45016 l 3.35851,-27.65881 31.32842,-13.34743 22.11256,16.61756 a 94.18423,94.18423 0 0 0 19.99433,-25.6001 l -21.61231,-16.24105 4.10504,-33.804889 26.55816,-11.315238 A 94.18423,94.18423 0 0 0 177.65183,50.723701 L 152.48185,61.447368 125.25906,40.989913 128.68297,12.795509 A 94.18423,94.18423 0 0 0 98.554185,7.6399001 Z" />
    <path
       id="path5884"
       style="fill:#464646;fill-opacity:1;stroke:none;stroke-width:0;stroke-linecap:round;stroke-miterlimit:0.3;stroke-dasharray:none"
       d="m 128.68297,12.795509 -3.42391,28.194404 27.22279,20.457455 25.16998,-10.723667 A 94.18423,94.18423 0 0 0 128.68297,12.795509 Z" />
    <path
       id="path5801"
       style="fill:#464646;fill-opacity:1;stroke:none;stroke-width:0;stroke-linecap:round;stroke-miterlimit:0.3;stroke-dasharray:none"
       d="M 34.916887,32.512914 57.086005,49.172307 88.413839,35.825466 91.801223,7.9345064 A 94.18423,94.18423 0 0 0 34.916887,32.512914 Z" />
    <path
       sodipodi:type="star"
       style="fill:#464646;fill-opacity:1;stroke:none;stroke-width:40;stroke-linecap:round;stroke-miterlimit:4;stroke-dasharray:none;stroke-opacity:1"
       id="path4062"
       inkscape:flatsided="true"
       sodipodi:sides="6"
       sodipodi:cx="305.44724"
       sodipodi:cy="315.71432"
       sodipodi:r1="112.87922"
       sodipodi:r2="79.398636"
       sodipodi:arg1="0.64444222"
       sodipodi:arg2="1.168041"
       inkscape:rounded="0"
       inkscape:randomized="0"
       d="m 395.68683,383.52681 -103.84713,44.24354 -90.2396,-67.81249 13.60754,-112.05602 103.84713,-44.24354 90.2396,67.81249 z"
       transform="matrix(0.30167676,0,0,0.30167676,6.4078895,6.5802149)"
       inkscape:transform-center-x="1.8840067e-06"
       inkscape:transform-center-y="-1.9398075e-06" />
  </g>
</svg>
